datagovsgR
…
#>  3 S107        29.6
#>  4 S43         30.6
#>  5 S44         29.4
#>  6 S121        30.5
#>  7 S106        29.5
#>  8 S111        30.4
#>  9 S122        29.7
#> 10 S60         30.7
#> 11 S115        28.5
#> 12 S116        30.1
#> 13 S104        30.2
#> 14 S100        30.3
#> 
#> $rainfall
#> # A tibble: 52 x 2
#>    station_id value
#>    <chr>      <int>
#>  1 S105           0
#>  2 S77            0
#>  3 S109           0
#>  4 S117           0
#>  5 S64            0
#>  6 S90            0
#>  7 S61            0
#>  8 S114           0
#>  9 S11            0
#> 10 S50            0
#> # ... with 42 more rows
…
